{
  "website_name": "Classification Website",
  "tasks": [
    {
      "name": "Roof Classification",
      "type": "categorical",
      "prelabeled": true,
      "inputs": [
        {
          "name": "Aerial Image",
          "directory": "D:\\Research\\roof_learning\\witten\\pics\\train\\rgb",
          "unique_id_regex": "(.*)_.*_.*",
          "widget": "picture"
        },
        {
          "name": "LIDAR Image",
          "directory": "D:\\Research\\roof_learning\\witten\\pics\\train\\lidar",
          "unique_id_regex": "(.*)_.*_.*",
          "widget": "picture"
        }
      ]
    }
  ]
}