{
  "website_name": "Animal Classification Website",
  "db_name": "single_input_data_file.db",
  "users": {
        "admin": "password",
        "user": "password"
    },
  "tasks": [
    {
      "name": "Dog/Cat Identification",
      "type": "categorical",
      "prelabeled": true,
      "inputs": [
        {
          "name": "Image",
          "data_file": "server/tests/dog_cats/example_data_file.csv",
          "directory": "server/tests/dog_cats",
          "unique_id_regex": "(\\d*)_.*",
          "widget": "picture"
        }
      ]
    }
  ]
}
